{
  "required": true,
  "package": "baritone.mixins",
  "compatibilityLevel": "JAVA_8",
  "verbose": false,
  "injectors": {
    "maxShiftBy": 2
  },
  "client": [
    "MixinBlockPos",
    "MixinChunkArray",
    "MixinClientChunkProvider",
    "MixinClientPlayerEntity",
    "MixinClientPlayNetHandler",
    "MixinEntity",
    "MixinEntityRenderManager",
    "MixinGameRenderer",
    "MixinLivingEntity",
    "MixinLootContext",
    "MixinMinecraft",
    "MixinNetworkManager"
  ]
}