{
  "schemaVersion": 1,
  "id": "fabritone",
  "version": "1.0.1",
  "name": "fabritone",
  "description": "Baritone + Fabric",
  "environment": "client",
  "mixins": [
    "fabritone.mixins.json"
  ]
}